<?xml version="1.0" encoding="UTF-8" standalone="no"?>
<!-- Created with Inkscape (http://www.inkscape.org/) -->

<svg
   xmlns:dc="http://purl.org/dc/elements/1.1/"
   xmlns:cc="http://creativecommons.org/ns#"
   xmlns:rdf="http://www.w3.org/1999/02/22-rdf-syntax-ns#"
   xmlns:svg="http://www.w3.org/2000/svg"
   xmlns="http://www.w3.org/2000/svg"
   xmlns:sodipodi="http://sodipodi.sourceforge.net/DTD/sodipodi-0.dtd"
   xmlns:inkscape="http://www.inkscape.org/namespaces/inkscape"
   width="30.688597mm"
   height="44.930813mm"
   viewBox="0 0 30.688597 44.930813"
   version="1.1"
   id="svg4555"
   inkscape:version="0.92.1 r15371"
   sodipodi:docname="office-move-net-logo-buildings.svg">
  <defs
     id="defs4549" />
  <sodipodi:namedview
     id="base"
     pagecolor="#ffffff"
     bordercolor="#666666"
     borderopacity="1.0"
     inkscape:pageopacity="0.0"
     inkscape:pageshadow="2"
     inkscape:zoom="5.6"
     inkscape:cx="19.293212"
     inkscape:cy="79.716036"
     inkscape:document-units="mm"
     inkscape:current-layer="layer1"
     showgrid="false"
     fit-margin-top="0"
     fit-margin-left="0"
     fit-margin-right="0"
     fit-margin-bottom="0"
     inkscape:window-width="3840"
     inkscape:window-height="2089"
     inkscape:window-x="0"
     inkscape:window-y="34"
     inkscape:window-maximized="1" />
  <metadata
     id="metadata4552">
    <rdf:RDF>
      <cc:Work
         rdf:about="">
        <dc:format>image/svg+xml</dc:format>
        <dc:type
           rdf:resource="http://purl.org/dc/dcmitype/StillImage" />
        <dc:title></dc:title>
      </cc:Work>
    </rdf:RDF>
  </metadata>
  <g
     inkscape:label="Layer 1"
     inkscape:groupmode="layer"
     id="layer1"
     transform="translate(-99.560464,-170.96912)">
    <g
       transform="matrix(0.35277777,0,0,-0.35277777,30.238256,285.74505)"
       id="g4534">
      <g
         transform="translate(267.0459,220.3301)"
         id="g30">
        <path
           inkscape:connector-curvature="0"
           id="path32"
           style="fill:#dc5800;fill-opacity:1;fill-rule:evenodd;stroke:none"
           d="m 0,0 c -6.284,-8.024 -16.063,-13.182 -27.046,-13.182 -18.962,0 -34.334,15.371 -34.334,34.333 0,2.398 0.246,4.738 0.714,6.996 L -47.635,4.86 h 7.471 l 13.096,23.402 h 0.089 V 4.86 h 9.721 v 32.582 h -15.346 l -11.295,-20.97 -11.296,20.97 h -12.193 c -2.134,-5.281 -3.137,-10.693 -3.154,-16.291 0,-24.314 19.949,-43.918 44.261,-43.488 15.302,0.259 29.581,8.584 37.25,22.337 z m -34.938,67.276 v 13.129 l -12.319,7.113 V 63.36 c 3.845,1.845 7.981,3.18 12.319,3.916 m 25.694,37.743 V 64.433 C 2.455,59.616 11.772,50.192 16.449,38.42 v 51.765 z" />
      </g>
      <g
         transform="translate(254.4502,318.8979)"
         id="g34">
        <path
           inkscape:connector-curvature="0"
           id="path36"
           style="fill:#333333;fill-opacity:1;fill-rule:evenodd;stroke:none"
           d="m 0,0 v -5.671 l -6.642,-4.978 v 5.671 z M -16.857,-30.689 V -8.671 L 3.352,6.451 -22.342,-8.383 v -9.78 -13.129 c 1.796,0.306 3.626,0.508 5.485,0.603 m -35.608,9.359 v -34.935 h 10.968 c 6.285,8.025 16.063,13.182 27.047,13.182 18.962,0 34.333,-15.372 34.333,-34.333 0,-2.578 -0.284,-5.088 -0.822,-7.503 l -0.097,0.123 -18.766,23.671 v -15.723 l 13.365,-16.86 h 12.325 0.004 c 2.131,5.276 3.136,10.694 3.153,16.292 0,11.136 -4.222,21.771 -11.892,29.881 l -0.074,0.08 c -0.143,0.151 -0.29,0.299 -0.435,0.448 -0.106,0.109 -0.211,0.219 -0.319,0.326 -0.078,0.078 -0.158,0.155 -0.236,0.232 -0.173,0.17 -0.345,0.34 -0.52,0.507 l -0.113,0.107 c -7.774,7.372 -18.28,11.914 -29.906,11.914 -13.324,0 -25.949,-6.092 -34.215,-16.629 v 29.022 l 14.003,10.478 z m 15.481,5.663 v -3.93 l -4.602,-3.449 v 3.929 z m -5.794,-4.343 v -3.929 l -4.602,-3.449 v 3.93 z m 34.416,13.743 v -5.671 l -6.642,-4.979 v 5.671 z" />
      </g>
    </g>
  </g>
</svg>
